<define-tag pagetitle>DSA-4887-1 lib3mf</define-tag>
<define-tag report_date>2021-4-08</define-tag>
<define-tag secrefs>CVE-2021-21772 Bug#985092</define-tag>
<define-tag packages>lib3mf</define-tag>
<define-tag isvulnerable>yes</define-tag>
<define-tag fixed>yes</define-tag>
<define-tag fixed-section>no</define-tag>

#use wml::debian::security



</dl>
