<define-tag pagetitle>DSA-4797-1 webkit2gtk</define-tag>
<define-tag report_date>2020-11-23</define-tag>
<define-tag secrefs>CVE-2020-9948 CVE-2020-9951 CVE-2020-9983 CVE-2020-13584</define-tag>
<define-tag packages>webkit2gtk</define-tag>
<define-tag isvulnerable>yes</define-tag>
<define-tag fixed>yes</define-tag>
<define-tag fixed-section>no</define-tag>

#use wml::debian::security



</dl>
