<define-tag pagetitle>DSA-4611-1 opensmtpd</define-tag>
<define-tag report_date>2020-1-29</define-tag>
<define-tag secrefs>CVE-2020-7247 Bug#950121</define-tag>
<define-tag packages>opensmtpd</define-tag>
<define-tag isvulnerable>yes</define-tag>
<define-tag fixed>yes</define-tag>
<define-tag fixed-section>no</define-tag>

#use wml::debian::security



</dl>
