<define-tag pagetitle>DLA-799-1 ming</define-tag>
<define-tag report_date>2017-1-26</define-tag>
<define-tag secrefs>CVE-2016-9264 CVE-2016-9265 CVE-2016-9266 CVE-2016-9827 CVE-2016-9828 CVE-2016-9829 CVE-2016-9831 Bug#843928</define-tag>
<define-tag packages>ming</define-tag>
<define-tag isvulnerable>yes</define-tag>
<define-tag fixed>yes</define-tag>
<define-tag fixed-section>no</define-tag>

#use wml::debian::security

