<define-tag pagetitle>DLA-2211-1 log4net</define-tag>
<define-tag report_date>2020-05-15</define-tag>
<define-tag secrefs>CVE-2018-1285</define-tag>
<define-tag packages>log4net</define-tag>
<define-tag isvulnerable>yes</define-tag>
<define-tag fixed>yes</define-tag>
<define-tag fixed-section>no</define-tag>

#use wml::debian::security
