<define-tag pagetitle>DLA-1390-1 procps</define-tag>
<define-tag report_date>2018-5-31</define-tag>
<define-tag secrefs>CVE-2018-1122 CVE-2018-1123 CVE-2018-1124 CVE-2018-1125 CVE-2018-1126 Bug##899170</define-tag>
<define-tag packages>procps</define-tag>
<define-tag isvulnerable>yes</define-tag>
<define-tag fixed>yes</define-tag>
<define-tag fixed-section>no</define-tag>

#use wml::debian::security

