<define-tag pagetitle>DLA-1449-1 openssl</define-tag>
<define-tag report_date>2018-7-28</define-tag>
<define-tag secrefs>CVE-2018-0732 CVE-2018-0737 Bug#895844</define-tag>
<define-tag packages>openssl</define-tag>
<define-tag isvulnerable>yes</define-tag>
<define-tag fixed>yes</define-tag>
<define-tag fixed-section>no</define-tag>

#use wml::debian::security

