<define-tag pagetitle>DSA-4594-1 openssl1.0</define-tag>
<define-tag report_date>2019-12-27</define-tag>
<define-tag secrefs>CVE-2019-1551</define-tag>
<define-tag packages>openssl1.0</define-tag>
<define-tag isvulnerable>yes</define-tag>
<define-tag fixed>yes</define-tag>
<define-tag fixed-section>no</define-tag>

#use wml::debian::security



</dl>
