<define-tag pagetitle>DSA-5150-1 rsyslog</define-tag>
<define-tag report_date>2022-5-28</define-tag>
<define-tag secrefs>CVE-2022-24903 Bug#1010619</define-tag>
<define-tag packages>rsyslog</define-tag>
<define-tag isvulnerable>yes</define-tag>
<define-tag fixed>yes</define-tag>
<define-tag fixed-section>no</define-tag>

#use wml::debian::security



</dl>
