<define-tag pagetitle>DLA-1878-1 php5</define-tag>
<define-tag report_date>2019-08-12</define-tag>
<define-tag secrefs>CVE-2019-11041 CVE-2019-11042</define-tag>
<define-tag packages>php5</define-tag>
<define-tag isvulnerable>yes</define-tag>
<define-tag fixed>yes</define-tag>
<define-tag fixed-section>no</define-tag>

#use wml::debian::security

