<define-tag pagetitle>DLA-1830-1 znc</define-tag>
<define-tag report_date>2019-6-20</define-tag>
<define-tag secrefs>CVE-2019-12816</define-tag>
<define-tag packages>znc</define-tag>
<define-tag isvulnerable>yes</define-tag>
<define-tag fixed>yes</define-tag>
<define-tag fixed-section>no</define-tag>

#use wml::debian::security

