<define-tag pagetitle>DLA-627-1 pdns</define-tag>
<define-tag report_date>2016-9-18</define-tag>
<define-tag secrefs>CVE-2016-5426 CVE-2016-5427 CVE-2016-6172 Bug#830808</define-tag>
<define-tag packages>pdns</define-tag>
<define-tag isvulnerable>yes</define-tag>
<define-tag fixed>yes</define-tag>
<define-tag fixed-section>no</define-tag>

#use wml::debian::security

