<define-tag pagetitle>DLA-732-3 monit</define-tag>
<define-tag report_date>2016-12-12</define-tag>
<define-tag secrefs>Bug#847196</define-tag>
<define-tag packages>monit</define-tag>
<define-tag isvulnerable>yes</define-tag>
<define-tag fixed>yes</define-tag>
<define-tag fixed-section>no</define-tag>

#use wml::debian::security

