<define-tag pagetitle>DLA-673-1 kdepimlibs</define-tag>
<define-tag report_date>2016-10-22</define-tag>
<define-tag secrefs>CVE-2016-7966 Bug#840546</define-tag>
<define-tag packages>kdepimlibs</define-tag>
<define-tag isvulnerable>yes</define-tag>
<define-tag fixed>yes</define-tag>
<define-tag fixed-section>no</define-tag>

#use wml::debian::security

